<?xml version="1.0" standalone="no"?>
<!DOCTYPE svg PUBLIC "-//W3C//DTD SVG 20010904//EN"
 "http://www.w3.org/TR/2001/REC-SVG-20010904/DTD/svg10.dtd">
<svg version="1.0" xmlns="http://www.w3.org/2000/svg"
 width="700.000000pt" height="700.000000pt" viewBox="0 0 700.000000 700.000000"
 preserveAspectRatio="xMidYMid meet">
<metadata>
Created by potrace 1.14, written by Peter Selinger 2001-2017
</metadata>
<g transform="translate(0.000000,700.000000) scale(0.100000,-0.100000)"
fill="#000000" stroke="none">
<path d="M4237 5834 c-1 -1 -49 -4 -107 -7 -58 -3 -112 -8 -120 -11 -8 -3 -31
-7 -51 -10 -68 -10 -253 -76 -336 -121 -310 -165 -529 -421 -638 -748 -45
-135 -64 -269 -70 -490 -3 -100 -7 -211 -10 -247 -6 -82 -16 -180 -20 -201 -2
-9 -6 -40 -10 -70 -24 -194 -113 -488 -197 -652 -93 -180 -230 -347 -369 -449
-69 -50 -221 -136 -257 -145 -14 -3 -37 -12 -51 -19 -14 -8 -33 -14 -41 -14
-8 0 -33 -7 -55 -14 -52 -18 -183 -45 -260 -54 -125 -14 -478 -6 -587 13 -13
2 -54 9 -92 15 -38 6 -73 13 -78 16 -14 9 -9 -7 13 -34 55 -71 92 -113 184
-206 284 -285 608 -506 983 -670 127 -55 376 -141 472 -161 8 -2 44 -10 80
-19 36 -8 81 -18 100 -21 19 -3 42 -8 50 -10 33 -9 201 -30 267 -34 7 -1 -6
-28 -30 -63 -42 -62 -74 -125 -66 -132 2 -2 58 -25 124 -51 66 -26 138 -55
160 -65 22 -10 88 -37 147 -60 l108 -41 37 30 c71 56 147 76 293 75 104 -1
284 -40 385 -83 112 -49 185 -84 260 -127 l40 -23 120 165 c66 90 144 197 173
236 l53 72 -53 34 c-87 56 -326 169 -436 205 l-103 34 69 41 c66 39 197 133
258 184 60 51 215 212 275 285 146 181 328 499 404 705 14 40 30 82 35 93 50
121 142 460 166 609 3 21 8 48 10 60 3 11 11 66 19 121 25 174 31 238 41 385
3 58 8 108 11 112 4 7 345 237 368 248 14 7 198 131 209 141 6 5 -22 23 -65
43 -81 37 -172 80 -379 178 -74 36 -153 72 -175 82 -36 16 -45 28 -92 124 -58
122 -96 182 -167 267 -244 294 -580 461 -964 479 -18 1 -34 1 -35 0z m559
-903 c95 -42 150 -125 159 -238 11 -155 -66 -271 -207 -307 -102 -26 -226 4
-292 70 -119 121 -102 354 33 448 83 58 212 69 307 27z"/>
</g>
</svg>
